scaling, nodes, ranks, n, k, time, resultNorm
s, 1, 1, 4800, 1000, 28.326377, 4800.000000
w, 1, 1, 4800, 100, 2.813811, 4800.000000
s, 1, 4, 4800, 1000, 20.250373, 4800.000000
w, 1, 4, 9600, 100, 7.960621, 9600.000000
s, 1, 8, 4800, 1000, 3.476348, 4800.000000
w, 1, 8, 13576, 100, 2.800926, 13576.000000
s, 1, 12, 4800, 1000, 2.350112, 4800.000000
w, 1, 12, 16620, 100, 2.784129, 16620.000000
s, 1, 16, 4800, 1000, 1.765012, 4800.000000
w, 1, 16, 19200, 100, 2.797031, 19200.000000
s, 2, 4, 4800, 1000, 19.670733, 4800.000000
w, 2, 4, 9600, 100, 8.046771, 9600.000000
s, 2, 8, 4800, 1000, 9.919251, 4800.000000
w, 2, 8, 13576, 100, 8.108520, 13576.000000
s, 2, 12, 4800, 1000, 6.726474, 4800.000000
w, 2, 12, 16620, 100, 8.003951, 16620.000000
s, 2, 16, 4800, 1000, 5.051630, 4800.000000
w, 2, 16, 19200, 100, 8.021491, 19200.000000
s, 2, 32, 4800, 1000, 2.582382, 4800.000000
w, 2, 32, 27136, 100, 7.990376, 27136.000000
s, 3, 12, 4800, 1000, 6.762545, 4800.000000
w, 3, 12, 16620, 100, 7.954973, 16620.000000
s, 4, 4, 4800, 1000, 20.234101, 4800.000000
w, 4, 4, 9600, 100, 8.234625, 9600.000000
s, 4, 8, 4800, 1000, 10.055060, 4800.000000
w, 4, 8, 13576, 100, 7.978568, 13576.000000
s, 4, 12, 4800, 1000, 6.888230, 4800.000000
w, 4, 12, 16620, 100, 8.095678, 16620.000000
s, 4, 16, 4800, 1000, 5.039805, 4800.000000
w, 4, 16, 19200, 100, 8.013960, 19200.000000
s, 4, 32, 4800, 1000, 2.616351, 4800.000000
w, 4, 32, 27136, 100, 8.033004, 27136.000000
s, 4, 64, 4800, 1000, 1.404816, 4800.000000
w, 4, 64, 38400, 100, 8.059363, 38400.000000
